NODES
label x y
San+Jose,+CA471 0.0 0.0
Santa+Clara,+CA444 0.0 0.0
Santa+Clara,+CA389 0.0 0.0
San+Jose,+CA472 0.0 0.0
Oak+Brook,+IL301 0.0 0.0
Santa+Clara,+CA430 0.0 0.0
Santa+Clara,+CA431 0.0 0.0
Weehawken,+NJ543 0.0 0.0
New+York,+NY293 0.0 0.0
Atlanta,+GA127 0.0 0.0
New+York,+NY294 0.0 0.0
Weehawken,+NJ544 0.0 0.0
Weehawken,+NJ552 0.0 0.0
Oak+Brook,+IL300 0.0 0.0
Jersey+City,+NJ244 0.0 0.0
Oak+Brook,+IL307 0.0 0.0
Oak+Brook,+IL315 0.0 0.0
Herndon,+VA193 0.0 0.0
Herndon,+VA496 0.0 0.0
Atlanta,+GA126 0.0 0.0
Jersey+City,+NJ245 0.0 0.0
London274 0.0 0.0
London275 0.0 0.0
London276 0.0 0.0
Herndon,+VA495 0.0 0.0
Oak+Brook,+IL308 0.0 0.0
Toronto,+Canada537 0.0 0.0
Waltham,+MA555 0.0 0.0
Oak+Brook,+IL309 0.0 0.0
Toronto,+Canada538 0.0 0.0
Palo+Alto,+CA317 0.0 0.0
Santa+Clara,+CA388 0.0 0.0
Palo+Alto,+CA104 0.0 0.0
Santa+Clara,+CA336 0.0 0.0
Palo+Alto,+CA318 0.0 0.0
Santa+Clara,+CA363 0.0 0.0
Santa+Clara,+CA364 0.0 0.0
Amsterdam119 0.0 0.0
Frankfurt185 0.0 0.0
Tukwila,+WA508 0.0 0.0
Tukwila,+WA509 0.0 0.0
Santa+Clara,+CA429 0.0 0.0
Chicago,+IL155 0.0 0.0
Oak+Brook,+IL310 0.0 0.0
San+Jose,+CA460 0.0 0.0
Santa+Clara,+CA365 0.0 0.0
Santa+Clara,+CA403 0.0 0.0
Santa+Clara,+CA443 0.0 0.0
Chicago,+IL156 0.0 0.0
Fort+Worth,+TX189 0.0 0.0
Irvine,+CA228 0.0 0.0
Austin,+TX137 0.0 0.0
Fort+Worth,+TX190 0.0 0.0
Fort+Worth,+TX191 0.0 0.0
Herndon,+VA208 0.0 0.0
Jersey+City,+NJ261 0.0 0.0
Frankfurt184 0.0 0.0
Waltham,+MA568 0.0 0.0
London277 0.0 0.0
Waltham,+MA569 0.0 0.0
Irvine,+CA212 0.0 0.0
El+Segundo,+CA163 0.0 0.0
Tokyo525 0.0 0.0
Santa+Clara,+CA404 0.0 0.0
Tokyo526 0.0 0.0
Irvine,+CA213 0.0 0.0
El+Segundo,+CA164 0.0 0.0
Waltham,+MA556 0.0 0.0
Herndon,+VA206 0.0 0.0
San+Jose,+CA459 0.0 0.0
Atlanta,+GA133 0.0 0.0
Miami,+FL285 0.0 0.0
Miami,+FL286 0.0 0.0
Irvine,+CA229 0.0 0.0
Austin,+TX136 0.0 0.0
Irvine,+CA237 0.0 0.0
Irvine,+CA230 0.0 0.0
Irvine,+CA231 0.0 0.0
Santa+Clara,+CA405 0.0 0.0

EDGES
label src dest weight bw delay
Link_0 0 1 450 10000000 2
Link_1 0 2 400 10000000 2
Link_2 0 3 350 10000000 1
Link_3 0 4 1450 10000000 16
Link_4 3 0 350 10000000 1
Link_5 3 5 200 10000000 2
Link_6 3 2 350 2400000 2
Link_7 3 6 250 10000000 2
Link_8 7 8 800 2400000 2
Link_9 7 9 1850 10000000 7
Link_10 7 10 250 10000000 2
Link_11 7 11 200 10000000 1
Link_12 7 12 200 2400000 1
Link_13 7 13 1200 10000000 7
Link_14 7 14 200 10000000 2
Link_15 15 16 200 2400000 1
Link_16 15 13 200 2400000 1
Link_17 15 4 200 2400000 1
Link_18 17 18 300 10000000 1
Link_19 17 19 450 10000000 6
Link_20 17 9 750 10000000 6
Link_21 11 20 200 10000000 2
Link_22 11 21 400 10000000 29
Link_23 11 22 450 10000000 29
Link_24 11 23 400 10000000 29
Link_25 11 7 200 10000000 1
Link_26 11 12 200 10000000 1
Link_27 11 8 500 10000000 2
Link_28 11 24 400 10000000 3
Link_29 25 16 200 2400000 1
Link_30 25 13 200 2400000 1
Link_31 25 4 200 2400000 1
Link_32 26 27 100 10000000 2
Link_33 28 13 200 10000000 1
Link_34 28 4 250 2400000 1
Link_35 29 13 100 10000000 8
Link_36 30 31 300 10000000 2
Link_37 30 32 250 10000000 1
Link_38 30 33 250 10000000 2
Link_39 30 34 200 10000000 1
Link_40 34 35 200 10000000 2
Link_41 34 36 200 10000000 2
Link_42 34 30 200 10000000 1
Link_43 37 21 200 10000000 3
Link_44 37 22 550 2400000 3
Link_45 37 38 100 10000000 3
Link_46 39 40 200 10000000 1
Link_47 39 41 700 10000000 7
Link_48 39 42 900 2400000 15
Link_49 43 13 200 10000000 1
Link_50 43 4 350 2400000 1
Link_51 40 42 600 10000000 15
Link_52 40 39 200 10000000 1
Link_53 31 5 200 10000000 1
Link_54 31 2 250 10000000 1
Link_55 31 30 300 10000000 2
Link_56 31 44 300 10000000 2
Link_57 32 1 250 10000000 2
Link_58 32 45 200 10000000 2
Link_59 32 30 250 10000000 1
Link_60 32 46 200 10000000 2
Link_61 2 0 400 10000000 2
Link_62 2 31 250 10000000 1
Link_63 2 3 350 2400000 2
Link_64 2 47 400 2400000 1
Link_65 2 46 300 10000000 1
Link_66 16 15 200 2400000 1
Link_67 16 13 200 2400000 1
Link_68 16 25 200 2400000 1
Link_69 16 4 250 2400000 1
Link_70 12 7 200 2400000 1
Link_71 12 11 200 10000000 1
Link_72 12 13 1300 2400000 7
Link_73 42 40 600 10000000 15
Link_74 42 4 200 10000000 2
Link_75 42 48 250 10000000 1
Link_76 42 39 900 2400000 15
Link_77 48 13 200 10000000 2
Link_78 48 49 700 10000000 8
Link_79 48 42 250 10000000 1
Link_80 49 50 1700 2400000 11
Link_81 49 51 400 10000000 3
Link_82 49 52 200 10000000 1
Link_83 49 48 700 10000000 8
Link_84 49 46 1600 10000000 13
Link_85 49 53 350 2400000 1
Link_86 24 18 200 10000000 1
Link_87 24 54 500 10000000 1
Link_88 24 11 400 10000000 3
Link_89 14 55 400 2400000 1
Link_90 14 56 100 10000000 32
Link_91 14 20 200 10000000 1
Link_92 14 7 200 10000000 2
Link_93 14 57 500 2400000 3
Link_94 14 58 100 10000000 29
Link_95 14 59 200 10000000 3
Link_96 18 41 2250 10000000 21
Link_97 18 17 300 10000000 1
Link_98 18 24 200 10000000 1
Link_99 60 61 100 10000000 2
Link_100 62 63 250 10000000 43
Link_101 62 64 200 10000000 1
Link_102 65 63 1000 2400000 4
Link_103 65 50 400 2400000 1
Link_104 65 66 200 2400000 2
Link_105 20 55 300 10000000 1
Link_106 20 21 200 10000000 29
Link_107 20 10 250 2400000 2
Link_108 20 22 250 10000000 29
Link_109 20 23 200 10000000 29
Link_110 20 11 200 10000000 2
Link_111 20 14 200 10000000 1
Link_112 64 62 200 10000000 1
Link_113 64 33 250 10000000 43
Link_114 64 44 200 2400000 44
Link_115 27 67 200 10000000 1
Link_116 27 57 200 10000000 1
Link_117 27 13 1300 2400000 8
Link_118 27 26 100 10000000 2
Link_119 67 13 1000 10000000 8
Link_120 67 59 700 2400000 1
Link_121 67 27 200 10000000 1
Link_122 68 8 200 10000000 3
Link_123 68 54 200 10000000 1
Link_124 41 18 2250 10000000 21
Link_125 41 5 200 10000000 1
Link_126 41 6 550 10000000 1
Link_127 41 69 200 10000000 2
Link_128 41 39 700 10000000 7
Link_129 41 46 450 10000000 1
Link_130 54 68 200 10000000 1
Link_131 54 8 400 10000000 3
Link_132 54 24 500 10000000 1
Link_133 19 9 300 10000000 1
Link_134 19 17 450 10000000 6
Link_135 19 70 400 2400000 1
Link_136 71 8 500 10000000 10
Link_137 71 72 800 10000000 1
Link_138 9 19 300 10000000 1
Link_139 9 72 250 10000000 6
Link_140 9 7 1850 10000000 7
Link_141 9 17 750 10000000 6
Link_142 9 52 350 10000000 8
Link_143 9 70 200 10000000 1
Link_144 72 71 800 10000000 1
Link_145 72 9 250 10000000 6
Link_146 52 50 1400 10000000 11
Link_147 52 9 350 10000000 8
Link_148 52 73 1600 10000000 11
Link_149 52 74 100 10000000 3
Link_150 52 49 200 10000000 1
Link_151 52 53 250 2400000 1
Link_152 69 41 200 10000000 2
Link_153 69 44 600 2400000 1
Link_154 53 49 350 2400000 1
Link_155 53 52 250 2400000 1
Link_156 8 71 500 10000000 10
Link_157 8 68 200 10000000 3
Link_158 8 54 400 10000000 3
Link_159 8 10 550 2400000 1
Link_160 8 7 800 2400000 2
Link_161 8 11 500 10000000 2
Link_162 10 20 250 2400000 2
Link_163 10 8 550 2400000 1
Link_164 10 7 250 10000000 2
Link_165 21 20 200 10000000 29
Link_166 21 37 200 10000000 3
Link_167 21 11 400 10000000 29
Link_168 22 20 250 10000000 29
Link_169 22 37 550 2400000 3
Link_170 22 11 450 10000000 29
Link_171 5 63 450 10000000 1
Link_172 5 36 550 2400000 1
Link_173 5 41 200 10000000 1
Link_174 5 31 200 10000000 1
Link_175 5 3 200 10000000 2
Link_176 5 33 250 10000000 1
Link_177 5 47 350 10000000 1
Link_178 23 20 200 10000000 29
Link_179 23 11 400 10000000 29
Link_180 6 35 200 10000000 1
Link_181 6 41 550 10000000 1
Link_182 6 36 200 10000000 1
Link_183 6 45 400 2400000 1
Link_184 6 3 250 10000000 2
Link_185 6 47 400 10000000 1
Link_186 58 14 100 10000000 29
Link_187 35 6 200 10000000 1
Link_188 35 34 200 10000000 2
Link_189 50 65 400 2400000 1
Link_190 50 73 200 10000000 1
Link_191 50 75 200 2400000 1
Link_192 50 76 300 10000000 1
Link_193 50 77 200 10000000 1
Link_194 50 49 1700 2400000 11
Link_195 50 52 1400 10000000 11
Link_196 36 5 550 2400000 1
Link_197 36 6 200 10000000 1
Link_198 36 34 200 10000000 2
Link_199 73 50 200 10000000 1
Link_200 73 66 300 10000000 2
Link_201 73 52 1600 10000000 11
Link_202 45 32 200 10000000 2
Link_203 45 6 400 2400000 1
Link_204 57 59 200 10000000 1
Link_205 57 14 500 2400000 3
Link_206 57 27 200 10000000 1
Link_207 59 67 700 2400000 1
Link_208 59 57 200 10000000 1
Link_209 59 14 200 10000000 3
Link_210 70 19 400 2400000 1
Link_211 70 9 200 10000000 1
Link_212 44 64 200 2400000 44
Link_213 44 31 300 10000000 2
Link_214 44 69 600 2400000 1
Link_215 44 47 250 10000000 2
Link_216 61 60 100 10000000 2
Link_217 61 63 500 10000000 4
Link_218 61 78 300 2400000 4
Link_219 61 66 200 10000000 1
Link_220 61 51 1600 10000000 11
Link_221 74 52 100 10000000 3
Link_222 66 65 200 2400000 2
Link_223 66 73 300 10000000 2
Link_224 66 76 200 10000000 2
Link_225 66 77 300 10000000 2
Link_226 66 61 200 10000000 1
Link_227 66 46 900 2400000 4
Link_228 66 47 600 10000000 4
Link_229 51 61 1600 10000000 11
Link_230 51 49 400 10000000 3
Link_231 46 1 250 10000000 1
Link_232 46 63 200 10000000 1
Link_233 46 41 450 10000000 1
Link_234 46 78 500 10000000 1
Link_235 46 32 200 10000000 2
Link_236 46 2 300 10000000 1
Link_237 46 49 1600 10000000 13
Link_238 46 66 900 2400000 4
Link_239 55 20 300 10000000 1
Link_240 55 14 400 2400000 1
Link_241 63 1 450 2400000 1
Link_242 63 65 1000 2400000 4
Link_243 63 62 250 10000000 43
Link_244 63 5 450 10000000 1
Link_245 63 61 500 10000000 4
Link_246 63 47 300 2400000 1
Link_247 63 46 200 10000000 1
Link_248 78 61 300 2400000 4
Link_249 78 46 500 10000000 1
Link_250 76 50 300 10000000 1
Link_251 76 66 200 10000000 2
Link_252 77 50 200 10000000 1
Link_253 77 75 300 2400000 1
Link_254 77 66 300 10000000 2
Link_255 33 64 250 10000000 43
Link_256 33 5 250 10000000 1
Link_257 33 30 250 10000000 2
Link_258 47 1 250 10000000 1
Link_259 47 63 300 2400000 1
Link_260 47 5 350 10000000 1
Link_261 47 6 400 10000000 1
Link_262 47 2 400 2400000 1
Link_263 47 66 600 10000000 4
Link_264 47 44 250 10000000 2
Link_265 1 63 450 2400000 1
Link_266 1 0 450 10000000 2
Link_267 1 32 250 10000000 2
Link_268 1 47 250 10000000 1
Link_269 1 46 250 10000000 1
Link_270 56 14 100 10000000 32
Link_271 75 50 200 2400000 1
Link_272 75 77 300 2400000 1
Link_273 38 37 100 10000000 3
Link_274 13 7 1200 10000000 7
Link_275 13 15 200 2400000 1
Link_276 13 16 200 2400000 1
Link_277 13 12 1300 2400000 7
Link_278 13 25 200 2400000 1
Link_279 13 28 200 10000000 1
Link_280 13 48 200 10000000 2
Link_281 13 29 100 10000000 8
Link_282 13 27 1300 2400000 8
Link_283 13 67 1000 10000000 8
Link_284 13 4 250 10000000 1
Link_285 13 43 200 10000000 1
Link_286 4 0 1450 10000000 16
Link_287 4 15 200 2400000 1
Link_288 4 16 250 2400000 1
Link_289 4 25 200 2400000 1
Link_290 4 42 200 10000000 2
Link_291 4 28 250 2400000 1
Link_292 4 13 250 10000000 1
Link_293 4 43 350 2400000 1
