NODES
label x y
N1 -53.8842839541239 50.2104926925639
N2 -55.993194619587 50.6161996298599
N3 -61.4753359270212 67.4314434117102
N4 -54.5011612745516 48.6299976662038
N5 -55.0936287028493 49.3905832811502
N6 -57.8676030614535 49.1770168606698
N7 -56.0064675696886 49.8631380983279
N8 -55.0226072351153 51.8698512974589
N9 -64.434349605758 68.2125850287309
N10 -52.2632741176496 47.8167136701079
N11 -66.0150274385244 69.7448660086641
N12 -55.7475030709143 47.1161364008088
N13 -54.2976803181305 51.1781494488054
N14 -60.1173957629429 48.5660443123629
N15 -57.6246030635404 48.7820576579546
N16 -56.4263691290869 52.4500440417879
N17 -64.8388153517455 66.8167476725073
N18 -67.0594321512051 69.3910224846174
N19 -79.15810866303 25.1259921721571
N20 -71.669517130352 70.1939494876696
N21 -76.3929722309329 71.4883831564623
N22 -57.4037514809045 46.8232417004141
N23 -60.221323040471 49.9521026708662
N24 -61.6476280161685 50.6775521329033
N25 -63.3464054592973 48.2471457224958
N26 -62.3071333540283 47.2358357938764
N27 -60.0477939418018 44.8270036843554
N28 -58.4987013853332 49.7743899086629
N29 -60.473020808315 53.7978136467973
N30 -57.6979819221215 54.4517058338234
N31 -61.2310572139749 66.6461472006958
N32 -69.0439630926453 65.0276641775528
N33 -85.2400439820674 15.6579745012597
N34 -79.1116021679117 28.0882758955462
N35 -58.0875009229068 45.1281263605203
N36 -76.5323107514281 68.3768465236163
N37 -74.1491486281949 66.3570572057989
N38 -71.8552700289034 65.555594472691
N39 -84.7103523076781 73.3386514236798
N40 -81.1449411394175 69.4841894638279
N41 -61.2824564306619 51.5602311996848
N42 -63.9767880635027 50.2533396314057
N43 -64.4001803588598 46.9392515866261
N44 -61.0076997292727 44.601318510101
N45 -61.7962465617806 56.7298487628133
N46 -63.3535323579743 55.5641194875876
N47 -61.0113417593742 65.0652114718173
N48 -85.3577156306589 19.1630078695485
N49 -86.5131579161887 13.5269548412818
N50 -85.3094285751119 12.1893218921505
N51 -70.0877309552935 40.8639553504491
N52 -80.3425706419959 28.6437594040811
N53 -76.8915596110192 69.9367952575945
N54 -78.862303777709 65.9006952738517
N55 -71.8162546180001 64.1599500733
N56 -71.917531919937 65.5042980073449
N57 -75.0199042270764 65.8638077424121
N58 -107.593832895952 73.412826743444
N59 -82.8000558197407 71.5012513920479
N60 -63.8337255738911 55.0952796937005
N61 -64.7911318543159 49.873719923004
N62 -67.991154265962 48.9214527998952
N63 -66.4030830918402 43.3408339659334
N64 -64.1800286896925 59.5496700337961
N65 -62.6609406740918 56.9684293808001
N66 -65.6644876145252 60.3552756270363
N67 -66.8215830074608 62.5178106531621
N68 -85.594501789255 20.225047245752
N69 -89.0881248010403 18.0317618860853
N70 -87.1146994487397 20.8479842754197
N71 -85.6495737189506 12.3258759948793
N72 -89.5908193808806 12.8969017861031
N73 -89.5113685843187 13.6163354677902
N74 -90.389521093996 15.6227692017892
N75 -71.829650725637 40.6963845640362
N76 -75.8758897920681 38.0604168574749
N77 -81.883468844597 26.4112262779658
N78 -78.2367451372217 33.0692435958217
N79 -79.4290985470103 61.605691456345
N80 -72.2457050448411 59.2052500957274
N81 -74.3236357609233 63.1071410666199
N82 -101.782310505776 73.3000098823263
N83 -155.612683719525 72.8342564539358
N84 -82.9373829440125 69.6449584990823
N85 -68.5768973283176 50.2490412717049
N86 -69.0894725349962 56.9303216459751
N87 -68.4394607979628 44.0396301326621
N88 -66.3735499156233 43.6771530282789
N89 -67.6797450547123 59.1867340578993
N90 -67.6373647479322 60.9033767609057
N91 -85.5047068533342 20.9630283764275
N92 -93.7800641265513 19.4558203613788
N93 -93.0144779280518 17.1286236627243
N94 -88.2564979453714 28.2758451786329
N95 -98.2843158556408 15.9693487686997
N96 -92.7182511813523 14.9655352871632
N97 -72.1433139314483 42.2815621988721
N98 -77.004192727935 39.4848853274101
N99 -83.5088518517763 29.2363656171129
N100 -82.4707398174432 29.6315796751637
N101 -84.6041663406943 30.7536161859902
N102 -81.3257925253676 29.4899046131188
N103 -82.6015474231862 64.4206387537587
N104 -83.3735443311427 55.2482624455072
N105 -68.0107440078048 59.7593776705993
N106 -75.0641760014956 56.7554660297259
N107 -76.5706975774238 63.797461349313
N108 -103.666357375889 70.7827430423076
N109 -91.0942806054048 73.2406271108403
N110 -98.2635611403721 71.6312199861109
N111 -101.0111295733 70.8031255237766
N112 -92.1501013806487 72.5670892021682
N113 -149.694299458964 69.7942126412453
N114 -118.067128809857 71.6930586020169
N115 -156.095885299068 72.4682125652051
N116 -85.4462711243234 67.1272799094302
N117 -83.4926769289608 71.5656967932068
N118 -70.1831341308572 48.2560462129179
N119 -71.0905738765744 48.8926539338718
N120 -71.1359319504997 50.9495232028499
N121 -70.0858081204971 48.1830228424749
N122 -72.0223834520094 52.1261866071887
N123 -72.9111087513654 56.1919251146551
N124 -73.3312832645628 46.8700008426094
N125 -66.6801190885637 43.8741682451453
N126 -90.7832794296344 15.8029605429921
N127 -94.8518976316815 16.0154364564714
N128 -86.6440085693482 30.0804089147223
N129 -89.2321023196364 29.2280755594115
N130 -92.2697517913544 27.7805108125661
N131 -99.7898186774613 16.4808568781223
N132 -100.174627991506 16.4850289027297
N133 -96.9556907948034 21.3359608478596
N134 -95.4037539499434 15.5336967396842
N135 -77.0065206649615 45.260781920359
N136 -74.1083930912707 40.1713571403721
N137 -75.1791999033178 40.4534200244078
N138 -82.6182550439016 38.9102903296597
N139 -85.7468456314031 29.1699408803389
N140 -87.067324737845 32.5007525632357
N141 -85.2537920329316 64.8653473167967
N142 -86.2308614985689 56.7254680475629
N143 -85.3731876058787 54.8772198133426
N144 -78.6096986323857 60.0346600232039
N145 -75.8398584286827 60.9411638200527
N146 -78.0942903433892 62.5703195523748
N147 -108.013529348762 67.4507087960559
N148 -104.649465726943 64.8771716315362
N149 -108.01162990055 69.5331373930257
N150 -91.9614680290782 70.2630320870776
N151 -93.0234233189834 70.7075713788946
N152 -100.063662672122 69.6666868257761
N153 -100.337703754273 71.7986802474857
N154 -147.726916047799 70.015790689751
N155 -150.415418613554 71.9461240675587
N156 -141.001411623953 70.3322593629088
N157 -117.233205655958 71.5538088884215
N158 -118.386061556701 67.8658018928776
N159 -137.577311237784 70.0415766390462
N160 -157.397708382774 66.1830050309987
N161 -85.4948970941903 68.0939171780835
N162 -86.9117462196589 66.3070358837641
N163 -84.3238478821549 69.8705653389469
N164 -73.424488197778 49.0635687449361
N165 -74.9454166391924 51.6158019070575
N166 -75.6888833769302 52.842633871736
N167 -73.2552536011657 55.5690705290282
N168 -73.8628340346698 49.2422795223651
N169 -89.7973517737684 31.6903443993253
N170 -86.7262536703409 30.4932220373941
N171 -90.7823502209577 29.5541695456546
N172 -92.5881811638219 32.2211288347361
N173 -99.6320553539196 18.8454287120808
N174 -99.1721290796612 26.0109115561875
N175 -94.5816148970432 28.1794533648828
N176 -77.4732659771392 45.124715823174
N177 -77.0439265137965 43.1063349688951
N178 -78.5233745165429 43.3818494402016
N179 -83.1097508037841 38.3849002166777
N180 -87.4224309048854 31.3712470922925
N181 -88.1611716089661 34.885744301161
N182 -88.3676389538677 63.0401683328112
N183 -87.7620128941477 55.7751218993444
N184 -81.9539985294632 52.8126243712514
N185 -86.7106869321908 53.8702486947717
N186 -87.6832137836585 55.6398869511587
N187 -78.8871457291195 56.9373237815594
N188 -78.1219420466498 62.1419367077331
N189 -76.4052247570869 56.6317359860547
N190 -109.586792538403 65.9759019455643
N191 -110.992437589984 67.4656749152184
N192 -101.432025787901 65.7109794165072
N193 -100.95370342285 63.7623601176291
N194 -110.931097125283 69.2985182161942
N195 -110.423064174348 71.5413689085618
N196 -85.5287737014608 69.41501364655
N197 -91.9881138984509 72.2540673133801
N198 -89.2081768239142 67.1291372096613
N199 -92.4203444094458 69.8881574836709

EDGES
label src dest weight bw delay
Link_0 12 2 1 10000000 8
Link_1 12 1 1 10000000 1
Link_2 12 0 1 10000000 1
Link_3 7 15 1 10000000 1
Link_4 96 135 1 10000000 2
Link_5 96 86 1 10000000 2
Link_6 96 50 1 10000000 2
Link_7 96 134 1 10000000 3
Link_8 92 126 1 10000000 1
Link_9 92 125 1 10000000 2
Link_10 34 11 1 2400000 2
Link_11 34 21 1 10000000 1
Link_12 34 9 1 10000000 3
Link_13 41 60 1 10000000 1
Link_14 41 59 1 10000000 2
Link_15 41 23 1 2400000 1
Link_16 10 20 1 10000000 5
Link_17 10 19 1 10000000 3
Link_18 10 8 1 10000000 1
Link_19 56 80 1 10000000 2
Link_20 56 53 1 2400000 2
Link_21 56 35 1 2400000 2
Link_22 64 63 1 2400000 2
Link_23 64 44 1 2400000 1
Link_24 137 77 1 10000000 4
Link_25 137 177 1 10000000 3
Link_26 77 101 1 10000000 2
Link_27 77 33 1 2400000 3
Link_28 77 50 1 10000000 5
Link_29 77 75 1 2400000 3
Link_30 77 97 1 10000000 3
Link_31 77 100 1 10000000 3
Link_32 190 193 1 10000000 1
Link_33 114 112 1 10000000 3
Link_34 114 159 1 2400000 3
Link_35 111 109 1 2400000 3
Link_36 111 108 1 10000000 1
Link_37 60 59 1 10000000 3
Link_38 60 24 1 10000000 1
Link_39 60 42 1 10000000 2
Link_40 113 158 1 2400000 9
Link_41 113 154 1 2400000 14
Link_42 113 57 1 10000000 5
Link_43 113 157 1 2400000 2
Link_44 113 156 1 2400000 1
Link_45 113 155 1 2400000 10
Link_46 110 152 1 10000000 1
Link_47 2 10 1 10000000 3
Link_48 2 9 1 10000000 9
Link_49 2 8 1 10000000 2
Link_50 151 110 1 10000000 1
Link_51 151 191 1 2400000 2
Link_52 1 7 1 10000000 1
Link_53 1 4 1 10000000 1
Link_54 1 6 1 10000000 1
Link_55 1 5 1 10000000 1
Link_56 135 136 1 10000000 1
Link_57 135 75 1 2400000 2
Link_58 135 74 1 2400000 1
Link_59 55 37 1 10000000 1
Link_60 29 7 1 2400000 2
Link_61 29 28 1 10000000 2
Link_62 29 46 1 10000000 5
Link_63 27 1 1 10000000 2
Link_64 27 28 1 10000000 2
Link_65 27 15 1 10000000 2
Link_66 27 5 1 2400000 1
Link_67 27 22 1 2400000 1
Link_68 0 4 1 10000000 1
Link_69 0 3 1 2400000 1
Link_70 11 21 1 10000000 1
Link_71 11 9 1 10000000 2
Link_72 45 64 1 10000000 1
Link_73 45 63 1 10000000 2
Link_74 101 51 1 2400000 1
Link_75 101 76 1 10000000 2
Link_76 26 34 1 10000000 1
Link_77 26 21 1 2400000 2
Link_78 26 43 1 10000000 1
Link_79 80 106 1 10000000 1
Link_80 80 36 1 2400000 2
Link_81 80 79 1 10000000 2
Link_82 162 83 1 10000000 1
Link_83 162 160 1 2400000 1
Link_84 162 195 1 10000000 1
Link_85 121 122 1 10000000 2
Link_86 121 165 1 10000000 2
Link_87 121 85 1 10000000 3
Link_88 121 164 1 2400000 2
Link_89 28 45 1 10000000 2
Link_90 28 40 1 10000000 1
Link_91 28 44 1 10000000 2
Link_92 179 169 1 2400000 1
Link_93 179 128 1 10000000 2
Link_94 106 56 1 2400000 2
Link_95 106 53 1 10000000 2
Link_96 106 145 1 10000000 1
Link_97 106 144 1 10000000 2
Link_98 177 176 1 10000000 1
Link_99 177 97 1 2400000 2
Link_100 69 91 1 10000000 3
Link_101 69 93 1 10000000 4
Link_102 69 68 1 10000000 2
Link_103 163 121 1 10000000 2
Link_104 163 119 1 2400000 2
Link_105 163 167 1 2400000 1
Link_106 46 12 1 10000000 7
Link_107 46 7 1 10000000 6
Link_108 46 63 1 10000000 3
Link_109 46 66 1 10000000 3
Link_110 46 65 1 10000000 3
Link_111 46 16 1 10000000 2
Link_112 46 44 1 10000000 4
Link_113 33 51 1 10000000 1
Link_114 33 50 1 10000000 7
Link_115 87 124 1 10000000 1
Link_116 87 43 1 10000000 3
Link_117 87 42 1 2400000 2
Link_118 86 50 1 10000000 2
Link_119 86 62 1 10000000 1
Link_120 86 123 1 10000000 3
Link_121 53 78 1 10000000 2
Link_122 53 39 1 10000000 2
Link_123 20 39 1 10000000 3
Link_124 20 38 1 10000000 4
Link_125 109 151 1 10000000 2
Link_126 109 150 1 10000000 3
Link_127 120 86 1 10000000 2
Link_128 120 61 1 2400000 1
Link_129 120 117 1 2400000 1
Link_130 161 181 1 10000000 2
Link_131 82 114 1 10000000 1
Link_132 82 113 1 10000000 16
Link_133 82 112 1 10000000 3
Link_134 136 96 1 10000000 2
Link_135 136 75 1 2400000 2
Link_136 136 176 1 2400000 2
Link_137 143 78 1 10000000 1
Link_138 143 188 1 10000000 2
Link_139 143 187 1 10000000 1
Link_140 143 186 1 10000000 2
Link_141 139 180 1 2400000 2
Link_142 139 179 1 10000000 1
Link_143 139 169 1 2400000 1
Link_144 139 178 1 10000000 3
Link_145 108 38 1 10000000 3
Link_146 108 149 1 10000000 2
Link_147 170 129 1 10000000 1
Link_148 170 171 1 2400000 2
Link_149 78 103 1 10000000 4
Link_150 78 102 1 10000000 2
Link_151 4 12 1 10000000 1
Link_152 4 11 1 10000000 1
Link_153 4 6 1 2400000 1
Link_154 37 31 1 10000000 2
Link_155 141 78 1 10000000 4
Link_156 141 182 1 2400000 1
Link_157 141 103 1 10000000 2
Link_158 141 181 1 2400000 3
Link_159 119 121 1 2400000 1
Link_160 119 118 1 2400000 1
Link_161 90 69 1 2400000 1
Link_162 90 93 1 2400000 4
Link_163 90 18 1 10000000 4
Link_164 90 47 1 2400000 1
Link_165 158 155 1 2400000 2
Link_166 73 72 1 2400000 1
Link_167 73 95 1 10000000 1
Link_168 73 32 1 10000000 3
Link_169 154 82 1 10000000 3
Link_170 154 155 1 2400000 4
Link_171 21 14 1 10000000 1
Link_172 21 13 1 10000000 2
Link_173 72 95 1 10000000 2
Link_174 94 132 1 10000000 3
Link_175 94 131 1 10000000 1
Link_176 94 126 1 2400000 2
Link_177 94 130 1 2400000 1
Link_178 188 105 1 2400000 1
Link_179 188 165 1 2400000 2
Link_180 188 144 1 10000000 2
Link_181 133 94 1 10000000 2
Link_182 133 71 1 10000000 3
Link_183 95 92 1 2400000 1
Link_184 95 133 1 10000000 2
Link_185 95 71 1 10000000 2
Link_186 95 125 1 10000000 1
Link_187 187 78 1 2400000 1
Link_188 187 145 1 2400000 1
Link_189 187 144 1 10000000 2
Link_190 198 197 1 2400000 2
Link_191 198 150 1 10000000 1
Link_192 140 161 1 2400000 1
Link_193 140 141 1 10000000 4
Link_194 88 59 1 10000000 3
Link_195 88 65 1 10000000 1
Link_196 88 104 1 10000000 1
Link_197 51 77 1 10000000 3
Link_198 51 76 1 10000000 2
Link_199 197 195 1 10000000 2
Link_200 76 33 1 10000000 2
Link_201 76 90 1 10000000 3
Link_202 76 99 1 10000000 2
Link_203 76 98 1 10000000 2
Link_204 76 18 1 10000000 2
Link_205 58 20 1 2400000 3
Link_206 58 83 1 10000000 1
Link_207 58 38 1 10000000 2
Link_208 107 110 1 2400000 2
Link_209 107 148 1 10000000 2
Link_210 107 57 1 10000000 2
Link_211 107 147 1 10000000 3
Link_212 107 146 1 10000000 3
Link_213 61 60 1 10000000 2
Link_214 61 86 1 10000000 3
Link_215 25 26 1 10000000 2
Link_216 25 42 1 10000000 1
Link_217 83 116 1 10000000 1
Link_218 83 39 1 10000000 1
Link_219 83 115 1 10000000 2
Link_220 14 11 1 10000000 2
Link_221 14 5 1 2400000 1
Link_222 116 162 1 10000000 1
Link_223 116 58 1 2400000 1
Link_224 116 38 1 10000000 1
Link_225 129 69 1 10000000 4
Link_226 129 91 1 2400000 4
Link_227 129 171 1 10000000 2
Link_228 112 154 1 10000000 1
Link_229 112 153 1 2400000 1
Link_230 15 1 1 10000000 1
Link_231 15 29 1 10000000 1
Link_232 15 28 1 10000000 2
Link_233 39 58 1 10000000 2
Link_234 39 52 1 10000000 2
Link_235 39 35 1 10000000 2
Link_236 19 20 1 10000000 3
Link_237 19 37 1 2400000 2
Link_238 19 36 1 10000000 2
Link_239 19 17 1 10000000 2
Link_240 19 35 1 10000000 3
Link_241 132 129 1 10000000 4
Link_242 132 91 1 2400000 2
Link_243 132 126 1 2400000 3
Link_244 132 174 1 2400000 3
Link_245 132 173 1 2400000 3
Link_246 145 53 1 2400000 2
Link_247 145 78 1 2400000 1
Link_248 145 144 1 2400000 2
Link_249 138 76 1 10000000 2
Link_250 138 93 1 2400000 2
Link_251 138 100 1 2400000 1
Link_252 186 188 1 2400000 2
Link_253 186 103 1 10000000 2
Link_254 31 19 1 10000000 3
Link_255 31 17 1 10000000 2
Link_256 169 127 1 10000000 1
Link_257 169 100 1 2400000 1
Link_258 122 166 1 10000000 1
Link_259 122 79 1 10000000 2
Link_260 105 122 1 10000000 1
Link_261 105 144 1 10000000 2
Link_262 118 163 1 10000000 1
Link_263 128 170 1 10000000 1
Link_264 128 129 1 10000000 2
Link_265 128 169 1 10000000 2
Link_266 128 127 1 10000000 2
Link_267 128 168 1 10000000 2
Link_268 50 75 1 10000000 3
Link_269 50 74 1 10000000 1
Link_270 50 18 1 10000000 8
Link_271 115 161 1 10000000 1
Link_272 115 140 1 10000000 1
Link_273 115 160 1 10000000 1
Link_274 115 102 1 10000000 2
Link_275 99 77 1 10000000 3
Link_276 99 101 1 10000000 1
Link_277 99 98 1 2400000 1
Link_278 6 11 1 10000000 2
Link_279 6 14 1 2400000 1
Link_280 6 5 1 2400000 1
Link_281 59 45 1 2400000 1
Link_282 59 28 1 10000000 2
Link_283 59 85 1 10000000 3
Link_284 59 84 1 10000000 3
Link_285 75 97 1 10000000 1
Link_286 54 55 1 2400000 1
Link_287 54 80 1 10000000 2
Link_288 54 37 1 2400000 1
Link_289 54 31 1 10000000 2
Link_290 54 79 1 10000000 3
Link_291 176 96 1 10000000 3
Link_292 176 97 1 2400000 2
Link_293 124 86 1 10000000 1
Link_294 124 61 1 2400000 3
Link_295 124 62 1 2400000 1
Link_296 124 42 1 2400000 2
Link_297 71 72 1 2400000 1
Link_298 71 94 1 10000000 4
Link_299 71 70 1 10000000 2
Link_300 152 151 1 2400000 1
Link_301 152 109 1 2400000 1
Link_302 152 81 1 10000000 1
Link_303 24 41 1 10000000 1
Link_304 24 25 1 10000000 1
Link_305 40 41 1 10000000 2
Link_306 40 27 1 10000000 2
Link_307 40 59 1 10000000 2
Link_308 32 49 1 10000000 2
Link_309 32 48 1 10000000 2
Link_310 32 47 1 10000000 2
Link_311 43 34 1 10000000 2
Link_312 43 25 1 2400000 2
Link_313 43 50 1 10000000 5
Link_314 43 62 1 2400000 3
Link_315 43 18 1 10000000 11
Link_316 165 105 1 10000000 2
Link_317 165 164 1 2400000 1
Link_318 5 13 1 10000000 1
Link_319 191 192 1 2400000 1
Link_320 63 88 1 10000000 2
Link_321 63 59 1 10000000 2
Link_322 63 44 1 2400000 2
Link_323 36 56 1 10000000 1
Link_324 36 55 1 2400000 1
Link_325 36 37 1 2400000 2
Link_326 36 54 1 10000000 2
Link_327 17 10 1 10000000 1
Link_328 17 16 1 10000000 2
Link_329 9 12 1 10000000 2
Link_330 9 0 1 10000000 2
Link_331 9 3 1 10000000 1
Link_332 9 18 1 10000000 15
Link_333 194 57 1 2400000 2
Link_334 194 193 1 2400000 1
Link_335 148 194 1 2400000 2
Link_336 148 57 1 10000000 2
Link_337 148 193 1 2400000 2
Link_338 103 143 1 10000000 3
Link_339 103 142 1 10000000 1
Link_340 91 92 1 10000000 2
Link_341 97 137 1 10000000 3
Link_342 97 136 1 10000000 1
Link_343 66 31 1 10000000 2
Link_344 66 16 1 10000000 2
Link_345 85 88 1 10000000 2
Link_346 85 122 1 10000000 2
Link_347 85 84 1 10000000 3
Link_348 65 63 1 2400000 1
Link_349 65 66 1 10000000 2
Link_350 65 89 1 10000000 1
Link_351 89 88 1 10000000 1
Link_352 89 31 1 10000000 2
Link_353 89 54 1 10000000 3
Link_354 89 66 1 10000000 1
Link_355 57 82 1 10000000 20
Link_356 57 81 1 10000000 3
Link_357 166 121 1 2400000 2
Link_358 166 105 1 10000000 1
Link_359 166 165 1 2400000 2
Link_360 16 2 1 10000000 2
Link_361 16 31 1 10000000 2
Link_362 16 30 1 10000000 2
Link_363 147 192 1 2400000 2
Link_364 147 191 1 2400000 2
Link_365 147 146 1 2400000 2
Link_366 147 189 1 2400000 3
Link_367 93 76 1 10000000 3
Link_368 93 129 1 10000000 2
Link_369 93 128 1 10000000 1
Link_370 93 127 1 10000000 1
Link_371 38 10 1 10000000 8
Link_372 38 57 1 10000000 10
Link_373 62 87 1 10000000 1
Link_374 62 50 1 10000000 2
Link_375 171 174 1 10000000 2
Link_376 23 24 1 2400000 2
Link_377 23 40 1 10000000 1
Link_378 52 20 1 2400000 1
Link_379 52 19 1 10000000 3
Link_380 149 198 1 2400000 1
Link_381 149 197 1 2400000 2
Link_382 149 196 1 10000000 1
Link_383 149 195 1 10000000 3
Link_384 3 11 1 10000000 1
Link_385 3 4 1 10000000 1
Link_386 81 111 1 2400000 4
Link_387 81 110 1 10000000 2
Link_388 81 109 1 10000000 2
Link_389 81 108 1 10000000 5
Link_390 81 107 1 10000000 2
Link_391 81 38 1 10000000 8
Link_392 131 71 1 10000000 5
Link_393 131 172 1 10000000 1
Link_394 74 96 1 10000000 1
Link_395 74 75 1 2400000 2
Link_396 196 111 1 2400000 1
Link_397 196 108 1 10000000 1
Link_398 196 150 1 2400000 1
Link_399 22 40 1 10000000 1
Link_400 22 23 1 2400000 1
Link_401 117 118 1 10000000 1
Link_402 146 190 1 2400000 2
Link_403 146 148 1 10000000 1
Link_404 146 189 1 2400000 1
Link_405 189 190 1 10000000 1
Link_406 167 121 1 10000000 2
Link_407 167 164 1 2400000 2
Link_408 127 138 1 10000000 1
Link_409 127 100 1 10000000 1
Link_410 126 133 1 10000000 1
Link_411 126 95 1 10000000 1
Link_412 126 91 1 2400000 2
Link_413 49 71 1 10000000 2
Link_414 49 9 1 10000000 21
Link_415 49 18 1 10000000 6
Link_416 193 146 1 10000000 2
Link_417 130 131 1 10000000 1
Link_418 84 60 1 10000000 2
Link_419 84 121 1 10000000 2
Link_420 84 120 1 10000000 2
Link_421 84 119 1 2400000 2
Link_422 84 61 1 10000000 1
Link_423 84 118 1 10000000 2
Link_424 84 117 1 2400000 2
Link_425 144 80 1 10000000 2
Link_426 144 143 1 10000000 2
Link_427 144 79 1 10000000 2
Link_428 30 12 1 10000000 7
Link_429 30 2 1 2400000 1
Link_430 30 46 1 10000000 1
Link_431 156 57 1 10000000 5
Link_432 175 176 1 10000000 1
Link_433 123 96 1 10000000 2
Link_434 123 163 1 10000000 1
Link_435 123 120 1 10000000 2
Link_436 123 118 1 2400000 2
Link_437 123 117 1 2400000 2
Link_438 123 167 1 10000000 2
Link_439 172 94 1 2400000 2
Link_440 172 132 1 2400000 2
Link_441 172 130 1 2400000 1
Link_442 100 139 1 10000000 2
Link_443 100 99 1 10000000 1
Link_444 185 141 1 10000000 1
Link_445 185 182 1 2400000 1
Link_446 125 73 1 10000000 1
Link_447 125 68 1 10000000 2
Link_448 35 53 1 10000000 2
Link_449 35 36 1 10000000 2
Link_450 35 52 1 10000000 1
Link_451 70 49 1 10000000 1
Link_452 184 185 1 10000000 1
Link_453 184 183 1 2400000 3
Link_454 68 92 1 10000000 2
Link_455 68 73 1 2400000 2
Link_456 68 32 1 10000000 2
Link_457 68 91 1 2400000 3
Link_458 48 73 1 10000000 2
Link_459 48 72 1 10000000 2
Link_460 48 71 1 10000000 2
Link_461 48 49 1 2400000 1
Link_462 48 70 1 2400000 1
Link_463 42 61 1 10000000 2
Link_464 42 24 1 2400000 1
Link_465 42 43 1 10000000 2
Link_466 160 161 1 2400000 1
Link_467 160 83 1 10000000 2
Link_468 160 195 1 10000000 1
Link_469 98 138 1 10000000 1
Link_470 98 100 1 2400000 1
Link_471 181 140 1 10000000 2
Link_472 142 141 1 10000000 1
Link_473 142 185 1 2400000 2
Link_474 142 184 1 2400000 1
Link_475 142 183 1 2400000 2
Link_476 168 170 1 2400000 1
Link_477 168 171 1 2400000 2
Link_478 153 154 1 10000000 2
Link_479 178 137 1 2400000 1
Link_480 178 77 1 10000000 3
Link_481 178 180 1 2400000 3
Link_482 178 100 1 2400000 4
Link_483 174 129 1 10000000 1
Link_484 44 29 1 10000000 2
Link_485 44 45 1 2400000 1
Link_486 8 17 1 10000000 2
Link_487 8 16 1 10000000 1
Link_488 67 69 1 2400000 1
Link_489 67 90 1 10000000 1
Link_490 104 85 1 2400000 2
Link_491 104 89 1 10000000 1
Link_492 13 27 1 10000000 1
Link_493 13 26 1 10000000 2
Link_494 13 25 1 10000000 2
Link_495 13 14 1 2400000 2
Link_496 13 24 1 10000000 2
Link_497 13 23 1 10000000 2
Link_498 13 22 1 10000000 1
Link_499 102 53 1 2400000 2
Link_500 102 141 1 10000000 4
Link_501 102 140 1 10000000 2
Link_502 102 83 1 10000000 3
Link_503 102 39 1 10000000 3
Link_504 18 34 1 10000000 12
Link_505 18 33 1 10000000 2
Link_506 18 32 1 10000000 5
Link_507 173 174 1 10000000 3
Link_508 79 105 1 10000000 2
Link_509 79 85 1 10000000 2
Link_510 79 89 1 10000000 3
Link_511 79 104 1 2400000 2
Link_512 195 108 1 10000000 3
Link_513 47 69 1 10000000 2
Link_514 47 68 1 10000000 2
Link_515 47 67 1 10000000 1
Link_516 47 18 1 10000000 4
Link_517 150 111 1 10000000 1
Link_518 150 149 1 2400000 1
Link_519 134 176 1 10000000 1
Link_520 134 175 1 2400000 1
Link_521 134 123 1 10000000 2
repaired_Link_0 2 12 1 10000000 8
repaired_Link_1 1 12 1 10000000 1
repaired_Link_2 0 12 1 10000000 1
repaired_Link_3 15 7 1 10000000 1
repaired_Link_4 135 96 1 10000000 2
repaired_Link_5 86 96 1 10000000 2
repaired_Link_6 50 96 1 10000000 2
repaired_Link_7 134 96 1 10000000 3
repaired_Link_8 126 92 1 10000000 1
repaired_Link_9 125 92 1 10000000 2
repaired_Link_10 11 34 1 2400000 2
repaired_Link_11 21 34 1 10000000 1
repaired_Link_12 9 34 1 10000000 3
repaired_Link_13 60 41 1 10000000 1
repaired_Link_14 59 41 1 10000000 2
repaired_Link_15 23 41 1 2400000 1
repaired_Link_16 20 10 1 10000000 5
repaired_Link_17 19 10 1 10000000 3
repaired_Link_18 8 10 1 10000000 1
repaired_Link_19 80 56 1 10000000 2
repaired_Link_20 53 56 1 2400000 2
repaired_Link_21 35 56 1 2400000 2
repaired_Link_22 63 64 1 2400000 2
repaired_Link_23 44 64 1 2400000 1
repaired_Link_24 77 137 1 10000000 4
repaired_Link_25 177 137 1 10000000 3
repaired_Link_26 101 77 1 10000000 2
repaired_Link_27 33 77 1 2400000 3
repaired_Link_28 50 77 1 10000000 5
repaired_Link_29 75 77 1 2400000 3
repaired_Link_30 97 77 1 10000000 3
repaired_Link_31 100 77 1 10000000 3
repaired_Link_32 193 190 1 10000000 1
repaired_Link_33 112 114 1 10000000 3
repaired_Link_34 159 114 1 2400000 3
repaired_Link_35 109 111 1 2400000 3
repaired_Link_36 108 111 1 10000000 1
repaired_Link_37 59 60 1 10000000 3
repaired_Link_38 24 60 1 10000000 1
repaired_Link_39 42 60 1 10000000 2
repaired_Link_40 158 113 1 2400000 9
repaired_Link_41 154 113 1 2400000 14
repaired_Link_42 57 113 1 10000000 5
repaired_Link_43 157 113 1 2400000 2
repaired_Link_44 156 113 1 2400000 1
repaired_Link_45 155 113 1 2400000 10
repaired_Link_46 152 110 1 10000000 1
repaired_Link_47 10 2 1 10000000 3
repaired_Link_48 9 2 1 10000000 9
repaired_Link_49 8 2 1 10000000 2
repaired_Link_50 110 151 1 10000000 1
repaired_Link_51 191 151 1 2400000 2
repaired_Link_52 7 1 1 10000000 1
repaired_Link_53 4 1 1 10000000 1
repaired_Link_54 6 1 1 10000000 1
repaired_Link_55 5 1 1 10000000 1
repaired_Link_56 136 135 1 10000000 1
repaired_Link_57 75 135 1 2400000 2
repaired_Link_58 74 135 1 2400000 1
repaired_Link_59 37 55 1 10000000 1
repaired_Link_60 7 29 1 2400000 2
repaired_Link_61 28 29 1 10000000 2
repaired_Link_62 46 29 1 10000000 5
repaired_Link_63 1 27 1 10000000 2
repaired_Link_64 28 27 1 10000000 2
repaired_Link_65 15 27 1 10000000 2
repaired_Link_66 5 27 1 2400000 1
repaired_Link_67 22 27 1 2400000 1
repaired_Link_68 4 0 1 10000000 1
repaired_Link_69 3 0 1 2400000 1
repaired_Link_70 21 11 1 10000000 1
repaired_Link_71 9 11 1 10000000 2
repaired_Link_72 64 45 1 10000000 1
repaired_Link_73 63 45 1 10000000 2
repaired_Link_74 51 101 1 2400000 1
repaired_Link_75 76 101 1 10000000 2
repaired_Link_76 34 26 1 10000000 1
repaired_Link_77 21 26 1 2400000 2
repaired_Link_78 43 26 1 10000000 1
repaired_Link_79 106 80 1 10000000 1
repaired_Link_80 36 80 1 2400000 2
repaired_Link_81 79 80 1 10000000 2
repaired_Link_82 83 162 1 10000000 1
repaired_Link_83 160 162 1 2400000 1
repaired_Link_84 195 162 1 10000000 1
repaired_Link_85 122 121 1 10000000 2
repaired_Link_86 165 121 1 10000000 2
repaired_Link_87 85 121 1 10000000 3
repaired_Link_88 164 121 1 2400000 2
repaired_Link_89 45 28 1 10000000 2
repaired_Link_90 40 28 1 10000000 1
repaired_Link_91 44 28 1 10000000 2
repaired_Link_92 169 179 1 2400000 1
repaired_Link_93 128 179 1 10000000 2
repaired_Link_94 56 106 1 2400000 2
repaired_Link_95 53 106 1 10000000 2
repaired_Link_96 145 106 1 10000000 1
repaired_Link_97 144 106 1 10000000 2
repaired_Link_98 176 177 1 10000000 1
repaired_Link_99 97 177 1 2400000 2
repaired_Link_100 91 69 1 10000000 3
repaired_Link_101 93 69 1 10000000 4
repaired_Link_102 68 69 1 10000000 2
repaired_Link_103 121 163 1 10000000 2
repaired_Link_104 119 163 1 2400000 2
repaired_Link_105 167 163 1 2400000 1
repaired_Link_106 12 46 1 10000000 7
repaired_Link_107 7 46 1 10000000 6
repaired_Link_108 63 46 1 10000000 3
repaired_Link_109 66 46 1 10000000 3
repaired_Link_110 65 46 1 10000000 3
repaired_Link_111 16 46 1 10000000 2
repaired_Link_112 44 46 1 10000000 4
repaired_Link_113 51 33 1 10000000 1
repaired_Link_114 50 33 1 10000000 7
repaired_Link_115 124 87 1 10000000 1
repaired_Link_116 43 87 1 10000000 3
repaired_Link_117 42 87 1 2400000 2
repaired_Link_118 50 86 1 10000000 2
repaired_Link_119 62 86 1 10000000 1
repaired_Link_120 123 86 1 10000000 3
repaired_Link_121 78 53 1 10000000 2
repaired_Link_122 39 53 1 10000000 2
repaired_Link_123 39 20 1 10000000 3
repaired_Link_124 38 20 1 10000000 4
repaired_Link_125 151 109 1 10000000 2
repaired_Link_126 150 109 1 10000000 3
repaired_Link_127 86 120 1 10000000 2
repaired_Link_128 61 120 1 2400000 1
repaired_Link_129 117 120 1 2400000 1
repaired_Link_130 181 161 1 10000000 2
repaired_Link_131 114 82 1 10000000 1
repaired_Link_132 113 82 1 10000000 16
repaired_Link_133 112 82 1 10000000 3
repaired_Link_134 96 136 1 10000000 2
repaired_Link_135 75 136 1 2400000 2
repaired_Link_136 176 136 1 2400000 2
repaired_Link_137 78 143 1 10000000 1
repaired_Link_138 188 143 1 10000000 2
repaired_Link_139 187 143 1 10000000 1
repaired_Link_140 186 143 1 10000000 2
repaired_Link_141 180 139 1 2400000 2
repaired_Link_142 179 139 1 10000000 1
repaired_Link_143 169 139 1 2400000 1
repaired_Link_144 178 139 1 10000000 3
repaired_Link_145 38 108 1 10000000 3
repaired_Link_146 149 108 1 10000000 2
repaired_Link_147 129 170 1 10000000 1
repaired_Link_148 171 170 1 2400000 2
repaired_Link_149 103 78 1 10000000 4
repaired_Link_150 102 78 1 10000000 2
repaired_Link_151 12 4 1 10000000 1
repaired_Link_152 11 4 1 10000000 1
repaired_Link_153 6 4 1 2400000 1
repaired_Link_154 31 37 1 10000000 2
repaired_Link_155 78 141 1 10000000 4
repaired_Link_156 182 141 1 2400000 1
repaired_Link_157 103 141 1 10000000 2
repaired_Link_158 181 141 1 2400000 3
repaired_Link_159 121 119 1 2400000 1
repaired_Link_160 118 119 1 2400000 1
repaired_Link_161 69 90 1 2400000 1
repaired_Link_162 93 90 1 2400000 4
repaired_Link_163 18 90 1 10000000 4
repaired_Link_164 47 90 1 2400000 1
repaired_Link_165 155 158 1 2400000 2
repaired_Link_166 72 73 1 2400000 1
repaired_Link_167 95 73 1 10000000 1
repaired_Link_168 32 73 1 10000000 3
repaired_Link_169 82 154 1 10000000 3
repaired_Link_170 155 154 1 2400000 4
repaired_Link_171 14 21 1 10000000 1
repaired_Link_172 13 21 1 10000000 2
repaired_Link_173 95 72 1 10000000 2
repaired_Link_174 132 94 1 10000000 3
repaired_Link_175 131 94 1 10000000 1
repaired_Link_176 126 94 1 2400000 2
repaired_Link_177 130 94 1 2400000 1
repaired_Link_178 105 188 1 2400000 1
repaired_Link_179 165 188 1 2400000 2
repaired_Link_180 144 188 1 10000000 2
repaired_Link_181 94 133 1 10000000 2
repaired_Link_182 71 133 1 10000000 3
repaired_Link_183 92 95 1 2400000 1
repaired_Link_184 133 95 1 10000000 2
repaired_Link_185 71 95 1 10000000 2
repaired_Link_186 125 95 1 10000000 1
repaired_Link_187 78 187 1 2400000 1
repaired_Link_188 145 187 1 2400000 1
repaired_Link_189 144 187 1 10000000 2
repaired_Link_190 197 198 1 2400000 2
repaired_Link_191 150 198 1 10000000 1
repaired_Link_192 161 140 1 2400000 1
repaired_Link_193 141 140 1 10000000 4
repaired_Link_194 59 88 1 10000000 3
repaired_Link_195 65 88 1 10000000 1
repaired_Link_196 104 88 1 10000000 1
repaired_Link_197 77 51 1 10000000 3
repaired_Link_198 76 51 1 10000000 2
repaired_Link_199 195 197 1 10000000 2
repaired_Link_200 33 76 1 10000000 2
repaired_Link_201 90 76 1 10000000 3
repaired_Link_202 99 76 1 10000000 2
repaired_Link_203 98 76 1 10000000 2
repaired_Link_204 18 76 1 10000000 2
repaired_Link_205 20 58 1 2400000 3
repaired_Link_206 83 58 1 10000000 1
repaired_Link_207 38 58 1 10000000 2
repaired_Link_208 110 107 1 2400000 2
repaired_Link_209 148 107 1 10000000 2
repaired_Link_210 57 107 1 10000000 2
repaired_Link_211 147 107 1 10000000 3
repaired_Link_212 146 107 1 10000000 3
repaired_Link_213 60 61 1 10000000 2
repaired_Link_214 86 61 1 10000000 3
repaired_Link_215 26 25 1 10000000 2
repaired_Link_216 42 25 1 10000000 1
repaired_Link_217 116 83 1 10000000 1
repaired_Link_218 39 83 1 10000000 1
repaired_Link_219 115 83 1 10000000 2
repaired_Link_220 11 14 1 10000000 2
repaired_Link_221 5 14 1 2400000 1
repaired_Link_222 162 116 1 10000000 1
repaired_Link_223 58 116 1 2400000 1
repaired_Link_224 38 116 1 10000000 1
repaired_Link_225 69 129 1 10000000 4
repaired_Link_226 91 129 1 2400000 4
repaired_Link_227 171 129 1 10000000 2
repaired_Link_228 154 112 1 10000000 1
repaired_Link_229 153 112 1 2400000 1
repaired_Link_230 1 15 1 10000000 1
repaired_Link_231 29 15 1 10000000 1
repaired_Link_232 28 15 1 10000000 2
repaired_Link_233 58 39 1 10000000 2
repaired_Link_234 52 39 1 10000000 2
repaired_Link_235 35 39 1 10000000 2
repaired_Link_236 20 19 1 10000000 3
repaired_Link_237 37 19 1 2400000 2
repaired_Link_238 36 19 1 10000000 2
repaired_Link_239 17 19 1 10000000 2
repaired_Link_240 35 19 1 10000000 3
repaired_Link_241 129 132 1 10000000 4
repaired_Link_242 91 132 1 2400000 2
repaired_Link_243 126 132 1 2400000 3
repaired_Link_244 174 132 1 2400000 3
repaired_Link_245 173 132 1 2400000 3
repaired_Link_246 53 145 1 2400000 2
repaired_Link_247 78 145 1 2400000 1
repaired_Link_248 144 145 1 2400000 2
repaired_Link_249 76 138 1 10000000 2
repaired_Link_250 93 138 1 2400000 2
repaired_Link_251 100 138 1 2400000 1
repaired_Link_252 188 186 1 2400000 2
repaired_Link_253 103 186 1 10000000 2
repaired_Link_254 19 31 1 10000000 3
repaired_Link_255 17 31 1 10000000 2
repaired_Link_256 127 169 1 10000000 1
repaired_Link_257 100 169 1 2400000 1
repaired_Link_258 166 122 1 10000000 1
repaired_Link_259 79 122 1 10000000 2
repaired_Link_260 122 105 1 10000000 1
repaired_Link_261 144 105 1 10000000 2
repaired_Link_262 163 118 1 10000000 1
repaired_Link_263 170 128 1 10000000 1
repaired_Link_264 129 128 1 10000000 2
repaired_Link_265 169 128 1 10000000 2
repaired_Link_266 127 128 1 10000000 2
repaired_Link_267 168 128 1 10000000 2
repaired_Link_268 75 50 1 10000000 3
repaired_Link_269 74 50 1 10000000 1
repaired_Link_270 18 50 1 10000000 8
repaired_Link_271 161 115 1 10000000 1
repaired_Link_272 140 115 1 10000000 1
repaired_Link_273 160 115 1 10000000 1
repaired_Link_274 102 115 1 10000000 2
repaired_Link_275 77 99 1 10000000 3
repaired_Link_276 101 99 1 10000000 1
repaired_Link_277 98 99 1 2400000 1
repaired_Link_278 11 6 1 10000000 2
repaired_Link_279 14 6 1 2400000 1
repaired_Link_280 5 6 1 2400000 1
repaired_Link_281 45 59 1 2400000 1
repaired_Link_282 28 59 1 10000000 2
repaired_Link_283 85 59 1 10000000 3
repaired_Link_284 84 59 1 10000000 3
repaired_Link_285 97 75 1 10000000 1
repaired_Link_286 55 54 1 2400000 1
repaired_Link_287 80 54 1 10000000 2
repaired_Link_288 37 54 1 2400000 1
repaired_Link_289 31 54 1 10000000 2
repaired_Link_290 79 54 1 10000000 3
repaired_Link_291 96 176 1 10000000 3
repaired_Link_292 97 176 1 2400000 2
repaired_Link_293 86 124 1 10000000 1
repaired_Link_294 61 124 1 2400000 3
repaired_Link_295 62 124 1 2400000 1
repaired_Link_296 42 124 1 2400000 2
repaired_Link_297 72 71 1 2400000 1
repaired_Link_298 94 71 1 10000000 4
repaired_Link_299 70 71 1 10000000 2
repaired_Link_300 151 152 1 2400000 1
repaired_Link_301 109 152 1 2400000 1
repaired_Link_302 81 152 1 10000000 1
repaired_Link_303 41 24 1 10000000 1
repaired_Link_304 25 24 1 10000000 1
repaired_Link_305 41 40 1 10000000 2
repaired_Link_306 27 40 1 10000000 2
repaired_Link_307 59 40 1 10000000 2
repaired_Link_308 49 32 1 10000000 2
repaired_Link_309 48 32 1 10000000 2
repaired_Link_310 47 32 1 10000000 2
repaired_Link_311 34 43 1 10000000 2
repaired_Link_312 25 43 1 2400000 2
repaired_Link_313 50 43 1 10000000 5
repaired_Link_314 62 43 1 2400000 3
repaired_Link_315 18 43 1 10000000 11
repaired_Link_316 105 165 1 10000000 2
repaired_Link_317 164 165 1 2400000 1
repaired_Link_318 13 5 1 10000000 1
repaired_Link_319 192 191 1 2400000 1
repaired_Link_320 88 63 1 10000000 2
repaired_Link_321 59 63 1 10000000 2
repaired_Link_322 44 63 1 2400000 2
repaired_Link_323 56 36 1 10000000 1
repaired_Link_324 55 36 1 2400000 1
repaired_Link_325 37 36 1 2400000 2
repaired_Link_326 54 36 1 10000000 2
repaired_Link_327 10 17 1 10000000 1
repaired_Link_328 16 17 1 10000000 2
repaired_Link_329 12 9 1 10000000 2
repaired_Link_330 0 9 1 10000000 2
repaired_Link_331 3 9 1 10000000 1
repaired_Link_332 18 9 1 10000000 15
repaired_Link_333 57 194 1 2400000 2
repaired_Link_334 193 194 1 2400000 1
repaired_Link_335 194 148 1 2400000 2
repaired_Link_336 57 148 1 10000000 2
repaired_Link_337 193 148 1 2400000 2
repaired_Link_338 143 103 1 10000000 3
repaired_Link_339 142 103 1 10000000 1
repaired_Link_340 92 91 1 10000000 2
repaired_Link_341 137 97 1 10000000 3
repaired_Link_342 136 97 1 10000000 1
repaired_Link_343 31 66 1 10000000 2
repaired_Link_344 16 66 1 10000000 2
repaired_Link_345 88 85 1 10000000 2
repaired_Link_346 122 85 1 10000000 2
repaired_Link_347 84 85 1 10000000 3
repaired_Link_348 63 65 1 2400000 1
repaired_Link_349 66 65 1 10000000 2
repaired_Link_350 89 65 1 10000000 1
repaired_Link_351 88 89 1 10000000 1
repaired_Link_352 31 89 1 10000000 2
repaired_Link_353 54 89 1 10000000 3
repaired_Link_354 66 89 1 10000000 1
repaired_Link_355 82 57 1 10000000 20
repaired_Link_356 81 57 1 10000000 3
repaired_Link_357 121 166 1 2400000 2
repaired_Link_358 105 166 1 10000000 1
repaired_Link_359 165 166 1 2400000 2
repaired_Link_360 2 16 1 10000000 2
repaired_Link_361 31 16 1 10000000 2
repaired_Link_362 30 16 1 10000000 2
repaired_Link_363 192 147 1 2400000 2
repaired_Link_364 191 147 1 2400000 2
repaired_Link_365 146 147 1 2400000 2
repaired_Link_366 189 147 1 2400000 3
repaired_Link_367 76 93 1 10000000 3
repaired_Link_368 129 93 1 10000000 2
repaired_Link_369 128 93 1 10000000 1
repaired_Link_370 127 93 1 10000000 1
repaired_Link_371 10 38 1 10000000 8
repaired_Link_372 57 38 1 10000000 10
repaired_Link_373 87 62 1 10000000 1
repaired_Link_374 50 62 1 10000000 2
repaired_Link_375 174 171 1 10000000 2
repaired_Link_376 24 23 1 2400000 2
repaired_Link_377 40 23 1 10000000 1
repaired_Link_378 20 52 1 2400000 1
repaired_Link_379 19 52 1 10000000 3
repaired_Link_380 198 149 1 2400000 1
repaired_Link_381 197 149 1 2400000 2
repaired_Link_382 196 149 1 10000000 1
repaired_Link_383 195 149 1 10000000 3
repaired_Link_384 11 3 1 10000000 1
repaired_Link_385 4 3 1 10000000 1
repaired_Link_386 111 81 1 2400000 4
repaired_Link_387 110 81 1 10000000 2
repaired_Link_388 109 81 1 10000000 2
repaired_Link_389 108 81 1 10000000 5
repaired_Link_390 107 81 1 10000000 2
repaired_Link_391 38 81 1 10000000 8
repaired_Link_392 71 131 1 10000000 5
repaired_Link_393 172 131 1 10000000 1
repaired_Link_394 96 74 1 10000000 1
repaired_Link_395 75 74 1 2400000 2
repaired_Link_396 111 196 1 2400000 1
repaired_Link_397 108 196 1 10000000 1
repaired_Link_398 150 196 1 2400000 1
repaired_Link_399 40 22 1 10000000 1
repaired_Link_400 23 22 1 2400000 1
repaired_Link_401 118 117 1 10000000 1
repaired_Link_402 190 146 1 2400000 2
repaired_Link_403 148 146 1 10000000 1
repaired_Link_404 189 146 1 2400000 1
repaired_Link_405 190 189 1 10000000 1
repaired_Link_406 121 167 1 10000000 2
repaired_Link_407 164 167 1 2400000 2
repaired_Link_408 138 127 1 10000000 1
repaired_Link_409 100 127 1 10000000 1
repaired_Link_410 133 126 1 10000000 1
repaired_Link_411 95 126 1 10000000 1
repaired_Link_412 91 126 1 2400000 2
repaired_Link_413 71 49 1 10000000 2
repaired_Link_414 9 49 1 10000000 21
repaired_Link_415 18 49 1 10000000 6
repaired_Link_416 146 193 1 10000000 2
repaired_Link_417 131 130 1 10000000 1
repaired_Link_418 60 84 1 10000000 2
repaired_Link_419 121 84 1 10000000 2
repaired_Link_420 120 84 1 10000000 2
repaired_Link_421 119 84 1 2400000 2
repaired_Link_422 61 84 1 10000000 1
repaired_Link_423 118 84 1 10000000 2
repaired_Link_424 117 84 1 2400000 2
repaired_Link_425 80 144 1 10000000 2
repaired_Link_426 143 144 1 10000000 2
repaired_Link_427 79 144 1 10000000 2
repaired_Link_428 12 30 1 10000000 7
repaired_Link_429 2 30 1 2400000 1
repaired_Link_430 46 30 1 10000000 1
repaired_Link_431 57 156 1 10000000 5
repaired_Link_432 176 175 1 10000000 1
repaired_Link_433 96 123 1 10000000 2
repaired_Link_434 163 123 1 10000000 1
repaired_Link_435 120 123 1 10000000 2
repaired_Link_436 118 123 1 2400000 2
repaired_Link_437 117 123 1 2400000 2
repaired_Link_438 167 123 1 10000000 2
repaired_Link_439 94 172 1 2400000 2
repaired_Link_440 132 172 1 2400000 2
repaired_Link_441 130 172 1 2400000 1
repaired_Link_442 139 100 1 10000000 2
repaired_Link_443 99 100 1 10000000 1
repaired_Link_444 141 185 1 10000000 1
repaired_Link_445 182 185 1 2400000 1
repaired_Link_446 73 125 1 10000000 1
repaired_Link_447 68 125 1 10000000 2
repaired_Link_448 53 35 1 10000000 2
repaired_Link_449 36 35 1 10000000 2
repaired_Link_450 52 35 1 10000000 1
repaired_Link_451 49 70 1 10000000 1
repaired_Link_452 185 184 1 10000000 1
repaired_Link_453 183 184 1 2400000 3
repaired_Link_454 92 68 1 10000000 2
repaired_Link_455 73 68 1 2400000 2
repaired_Link_456 32 68 1 10000000 2
repaired_Link_457 91 68 1 2400000 3
repaired_Link_458 73 48 1 10000000 2
repaired_Link_459 72 48 1 10000000 2
repaired_Link_460 71 48 1 10000000 2
repaired_Link_461 49 48 1 2400000 1
repaired_Link_462 70 48 1 2400000 1
repaired_Link_463 61 42 1 10000000 2
repaired_Link_464 24 42 1 2400000 1
repaired_Link_465 43 42 1 10000000 2
repaired_Link_466 161 160 1 2400000 1
repaired_Link_467 83 160 1 10000000 2
repaired_Link_468 195 160 1 10000000 1
repaired_Link_469 138 98 1 10000000 1
repaired_Link_470 100 98 1 2400000 1
repaired_Link_471 140 181 1 10000000 2
repaired_Link_472 141 142 1 10000000 1
repaired_Link_473 185 142 1 2400000 2
repaired_Link_474 184 142 1 2400000 1
repaired_Link_475 183 142 1 2400000 2
repaired_Link_476 170 168 1 2400000 1
repaired_Link_477 171 168 1 2400000 2
repaired_Link_478 154 153 1 10000000 2
repaired_Link_479 137 178 1 2400000 1
repaired_Link_480 77 178 1 10000000 3
repaired_Link_481 180 178 1 2400000 3
repaired_Link_482 100 178 1 2400000 4
repaired_Link_483 129 174 1 10000000 1
repaired_Link_484 29 44 1 10000000 2
repaired_Link_485 45 44 1 2400000 1
repaired_Link_486 17 8 1 10000000 2
repaired_Link_487 16 8 1 10000000 1
repaired_Link_488 69 67 1 2400000 1
repaired_Link_489 90 67 1 10000000 1
repaired_Link_490 85 104 1 2400000 2
repaired_Link_491 89 104 1 10000000 1
repaired_Link_492 27 13 1 10000000 1
repaired_Link_493 26 13 1 10000000 2
repaired_Link_494 25 13 1 10000000 2
repaired_Link_495 14 13 1 2400000 2
repaired_Link_496 24 13 1 10000000 2
repaired_Link_497 23 13 1 10000000 2
repaired_Link_498 22 13 1 10000000 1
repaired_Link_499 53 102 1 2400000 2
repaired_Link_500 141 102 1 10000000 4
repaired_Link_501 140 102 1 10000000 2
repaired_Link_502 83 102 1 10000000 3
repaired_Link_503 39 102 1 10000000 3
repaired_Link_504 34 18 1 10000000 12
repaired_Link_505 33 18 1 10000000 2
repaired_Link_506 32 18 1 10000000 5
repaired_Link_507 174 173 1 10000000 3
repaired_Link_508 105 79 1 10000000 2
repaired_Link_509 85 79 1 10000000 2
repaired_Link_510 89 79 1 10000000 3
repaired_Link_511 104 79 1 2400000 2
repaired_Link_512 108 195 1 10000000 3
repaired_Link_513 69 47 1 10000000 2
repaired_Link_514 68 47 1 10000000 2
repaired_Link_515 67 47 1 10000000 1
repaired_Link_516 18 47 1 10000000 4
repaired_Link_517 111 150 1 10000000 1
repaired_Link_518 149 150 1 2400000 1
repaired_Link_519 176 134 1 10000000 1
repaired_Link_520 175 134 1 2400000 1
repaired_Link_521 123 134 1 10000000 2
