{
  "type": "NetworkGraph",
  "protocol": "static",
  "version": null,
  "revision": null,
  "metric": null,
  "nodes": [
    {
      "id": "CB",
      "properties": {
        "x": "0.0",
        "y": "0.0"
      },
      "label": "CB"
    },
    {
      "id": "N7",
      "properties": {
        "x": "0.0",
        "y": "0.0"
      },
      "label": "N7"
    },
    {
      "id": "N2",
      "properties": {
        "x": "0.0",
        "y": "0.0"
      },
      "label": "N2"
    },
    {
      "id": "N8",
      "properties": {
        "x": "0.0",
        "y": "0.0"
      },
      "label": "N8"
    },
    {
      "id": "N10",
      "properties": {
        "x": "0.0",
        "y": "0.0"
      },
      "label": "N10"
    }
  ],
  "links": [
    {
      "source": "CB",
      "target": "N7",
      "cost": 250,
      "properties": {
        "label": "Link_CB-N7",
        "bandwidth": 10000,
        "delay": 10
      }
    },
    {
      "source": "N7",
      "target": "CB",
      "cost": 250,
      "properties": {
        "label": "Link_N7-CB",
        "bandwidth": 10000,
        "delay": 10
      }
    },
    {
      "source": "CB",
      "target": "N2",
      "cost": 100,
      "properties": {
        "label": "Link_CB-N2",
        "bandwidth": 10000,
        "delay": 10
      }
    },
    {
      "source": "N2",
      "target": "CB",
      "cost": 100,
      "properties": {
        "label": "Link_N2-CB",
        "bandwidth": 10000,
        "delay": 10
      }
    },
    {
      "source": "CB",
      "target": "N8",
      "cost": 250,
      "properties": {
        "label": "Link_CB-N8",
        "bandwidth": 10000,
        "delay": 10
      }
    },
    {
      "source": "N8",
      "target": "CB",
      "cost": 250,
      "properties": {
        "label": "Link_N8-CB",
        "bandwidth": 10000,
        "delay": 10
      }
    },
    {
      "source": "N7",
      "target": "N10",
      "cost": 250,
      "properties": {
        "label": "Link_N7-N10",
        "bandwidth": 10000,
        "delay": 10
      }
    },
    {
      "source": "N10",
      "target": "N7",
      "cost": 250,
      "properties": {
        "label": "Link_N10-N7",
        "bandwidth": 10000,
        "delay": 10
      }
    },
    {
      "source": "N2",
      "target": "N10",
      "cost": 100,
      "properties": {
        "label": "Link_N2-N10",
        "bandwidth": 10000,
        "delay": 10
      }
    },
    {
      "source": "N10",
      "target": "N2",
      "cost": 100,
      "properties": {
        "label": "Link_N10-N2",
        "bandwidth": 10000,
        "delay": 10
      }
    },
    {
      "source": "N8",
      "target": "N10",
      "cost": 250,
      "properties": {
        "label": "Link_N8-N10",
        "bandwidth": 10000,
        "delay": 10
      }
    },
    {
      "source": "N10",
      "target": "N8",
      "cost": 250,
      "properties": {
        "label": "Link_N10-N8",
        "bandwidth": 10000,
        "delay": 10
      }
    }
  ]
}